*******************************************************
                      EmailReminder Script     
                      Sun Jul  1 03:40:00 WST 2018  
*******************************************************
\n
Logfile is /apps/CATS/prd/js/cronjobs/logs/EmailReminder_sh.01.log\n\n 
Base Dir is /apps/CATS/prd/js/cronjobs/logs\n\n 
password expired
<!DOCTYPE html PUBLIC "-//W3C//DTD XHTML 1.0 Transitional//EN" "http://www.w3.org/TR/xhtml1/DTD/xhtml1-transitional.dtd">
<html xmlns="http://www.w3.org/1999/xhtml">
<head>
<meta http-equiv="Content-Type" content="text/html; charset=iso-8859-1" />
<title>Log Cronjob</title>
</head>

<body>
<h1>Log Cronjob Started</h1>

<h1> Cronjobs in PRD </h1><p>Filename is :/apps2/CATS/prd/js/cronjobs/logs/EmailReminder_01.html</p><p>Opened Log File</p><p>Opened TCP Connection to catsprd</p><p>Sent Request for Page /js/cronjobs/EmailReminder.php</p><p>GET /js/cronjobs/EmailReminder.php HTTP/1.0
Host: catsprd
Connection: Close

</p><p>Processing Response in 4096 Byte Chunks</p><p>Processing Response in 4096 Byte Chunks</p><p>Processing Response in 4096 Byte Chunks</p><p>Processing Response in 4096 Byte Chunks</p><p>Processing Response in 4096 Byte Chunks</p><p>Processing Response in 4096 Byte Chunks</p><p>Processing Response in 4096 Byte Chunks</p><p>Processing Response in 4096 Byte Chunks</p><p>Processing Response in 4096 Byte Chunks</p><p>Processing Response in 4096 Byte Chunks</p><p>Processing Response in 4096 Byte Chunks</p><p>Processing Response in 4096 Byte Chunks</p><p>Processing Response in 4096 Byte Chunks</p><p>Processing Response in 4096 Byte Chunks</p><p>Processing Response in 4096 Byte Chunks</p><p>Processing Response in 4096 Byte Chunks</p><p>Processing Response in 4096 Byte Chunks</p><p>Processing Response in 4096 Byte Chunks</p><p>Processing Response in 4096 Byte Chunks</p><p>Processing Response in 4096 Byte Chunks</p><p>Processing Response in 4096 Byte Chunks</p><p>Processing Response in 4096 Byte Chunks</p><p>Processing Response in 4096 Byte Chunks</p><p>Processing Response in 4096 Byte Chunks</p><p>Processing Response in 4096 Byte Chunks</p><p>Processing Response in 4096 Byte Chunks</p><p>Processing Response in 4096 Byte Chunks</p><p>Processing Response in 4096 Byte Chunks</p><p>Processing Response in 4096 Byte Chunks</p><p>Processing Response in 4096 Byte Chunks</p><p>Processing Response in 4096 Byte Chunks</p><p>Processing Response in 4096 Byte Chunks</p><p>Processing Response in 4096 Byte Chunks</p><p>Processing Response in 4096 Byte Chunks</p><p>Processing Response in 4096 Byte Chunks</p><p>Processing Response in 4096 Byte Chunks</p><p>Processing Response in 4096 Byte Chunks</p><p>Processing Response in 4096 Byte Chunks</p><p>Processing Response in 4096 Byte Chunks</p><p>Processing Response in 4096 Byte Chunks</p><p>Processing Response in 4096 Byte Chunks</p><p>Processing Response in 4096 Byte Chunks</p><p>Processing Response in 4096 Byte Chunks</p><p>Processing Response in 4096 Byte Chunks</p><p>Processing Response in 4096 Byte Chunks</p><p>Processing Response in 4096 Byte Chunks</p><p>Processing Response in 4096 Byte Chunks</p><p>Processing Response in 4096 Byte Chunks</p><p>Processing Response in 4096 Byte Chunks</p><p>Processing Response in 4096 Byte Chunks</p><p>Processing Response in 4096 Byte Chunks</p><p>Processing Response in 4096 Byte Chunks</p><p>Processing Response in 4096 Byte Chunks</p><p>Processing Response in 4096 Byte Chunks</p><p>Processing Response in 4096 Byte Chunks</p><p>Processing Response in 4096 Byte Chunks</p><p>Processing Response in 4096 Byte Chunks</p><p>Processing Response in 4096 Byte Chunks</p><p>Processing Response in 4096 Byte Chunks</p><p>Processing Response in 4096 Byte Chunks</p><p>Processing Response in 4096 Byte Chunks</p><p>Processing Response in 4096 Byte Chunks</p><p>Processing Response in 4096 Byte Chunks</p><p>Processing Response in 4096 Byte Chunks</p><p>Processing Response in 4096 Byte Chunks</p><p>Processing Response in 4096 Byte Chunks</p><p>Processing Response in 4096 Byte Chunks</p><p>Processing Response in 4096 Byte Chunks</p><p>Processing Response in 4096 Byte Chunks</p><p>Processing Response in 4096 Byte Chunks</p><p>Processing Response in 4096 Byte Chunks</p><p>Processing Response in 4096 Byte Chunks</p><p>Processing Response in 4096 Byte Chunks</p><p>Processing Response in 4096 Byte Chunks</p><p>Processing Response in 4096 Byte Chunks</p><p>Processing Res  % Total    % Received % Xferd  Average Speed          Time             Curr.
                                 Dload  Upload Total    Current  Left    Speed
100  4681    0  4681    0     0   7880      0 --:--:--  0:00:00 --:--:--  7880100  4681    0  4681    0     0   7880      0 --:--:--  0:00:00 --:--:--     0
ponse in 4096 Byte Chunks</p><p>Processing Response in 4096 Byte Chunks</p><p>Processing Response in 4096 Byte Chunks</p><p>Processing Response in 4096 Byte Chunks</p><p>Processing Response in 4096 Byte Chunks</p><p>Processing Response in 4096 Byte Chunks</p><p>Processing Response in 4096 Byte Chunks</p><p>Processing Response in 4096 Byte Chunks</p><p>Processing Response in 4096 Byte Chunks</p><p>Processing Response in 4096 Byte Chunks</p><p>Processing Response in 4096 Byte Chunks</p><p>Closed TCP Connection</p><p>Closed Log File</p><h1>Log Cronjob Finished</h1>

</body>
</html>password expired
\n\n\n
EmailReminder Finished
Sun Jul  1 03:40:01 WST 2018
*******************************************************
