*******************************************************
                      EmailOverdueActions Script     
                      Wed Jul 19 03:20:00 WST 2017  
*******************************************************
\n
Logfile is /apps/CATS/prd/js/cronjobs/logs/EmailOverdueActions_sh.19.log\n\n 
Base Dir is /apps/CATS/prd/js/cronjobs/logs\n\n 
password expired
  % Total    % Received % Xferd  Average Speed          Time             Curr.
                                 Dload  Upload Total    Current  Left    Speed
  0     0    0     0    0     0      0      0 --:--:--  0:00:00 --:--:--     0  0     0    0     0    0     0      0      0 --:--:--  0:00:01 --:--:--     0  0     0    0     0    0     0      0      0 --:--:--  0:00:02 --:--:--     0  0     0    0     0    0     0      0      0 --:--:--  0:00:03 --:--:--     0<!DOCTYPE html PUBLIC "-//W3C//DTD XHTML 1.0 Transitional//EN" "http://www.w3.org/TR/xhtml1/DTD/xhtml1-transitional.dtd">
<html xmlns="http://www.w3.org/1999/xhtml">
<head>
<meta http-equiv="Content-Type" content="text/html; charset=iso-8859-1" />
<title>Log Cronjob</title>
</head>

<body>
<h1>Log Cronjob Started</h1>

<h1> Cronjobs in PRD </h1><p>Filename is :/apps2/CATS/prd/js/cronjobs/logs/EmailOverdueActions_19.html</p><p>Opened Log File</p><p>Opened TCP Connection to catsprd</p><p>Sent Request for Page /js/cronjobs/EmailOverdueActions.php</p><p>GET /js/cronjobs/EmailOverdueActions.php HTTP/1.0
Host: catsprd
Connection: Close

</p><p>Processing Response in 4096 Byte Chunks</p><p>Processing Response in 4096 Byte Chunks</p><p>Processing Response in 4096 Byte Chunks</p><p>Processing Response in 4096 Byte Chunks</p><p>Processing Response in 4096 Byte Chunks</p><p>Processing Response in 4096 Byte Chunks</p><p>Processing Response in 4096 Byte Chunks</p><p>Processing Response in 4096 Byte Chunks</p><p>Processing Response in 4096 Byte Chunks</p><p>Processing Response in 4096 Byte Chunks</p><p>Processing Response in 4096 Byte Chunks</p><p>Processing Response in 4096 Byte Chunks</p><p>Processing Response in 4096 Byte Chunks</p><p>Processing Response in 4096 Byte Chunks</p><p>Processing Response in 4096 Byte Chunks</p><p>Processing Response in 4096 Byte Chunks</p><p>Processing Response in 4096 Byte Chunks</p><p>Processing Response in 4096 Byte Chunks</p><p>Processing Response in 4096 Byte Chunks</p><p>Processing Response in 4096 Byte Chunks</p><p>Processing Response in 4096 Byte Chunks</p><p>Processing Response in 4096 Byte Chunks</p><p>Processing Response in 4096 Byte Chunks</p><p>Processing Response in 4096 Byte Chunks</p><p>Processing Response in 4096 Byte Chunks</p><p>Processing Response in 4096 Byte Chunks</p><p>Processing Response in 4096 Byte Chunks</p><p>Processing Response in 4096 Byte Chunks</p><p>Processing Response in 4096 Byte Chunks</p><p>Processing Response in 4096 Byte Chunks</p><p>Processing Response in 4096 Byte Chunks</p><p>Processing Response in 4096 Byte Chunks</p><p>Processing Response in 4096 Byte Chunks</p><p>Processing Response in 4096 Byte Chunks</p><p>Processing Response in 4096 Byte Chunks</p><p>Processing Response in 4096 Byte Chunks</p><p>Processing Response in 4096 Byte Chunks</p><p>Processing Response in 4096 Byte Chunks</p><p>Processing Response in 4096 Byte Chunks</p><p>Processing Response in 4096 Byte Chunks</p><p>Processing Response in 4096 Byte Chunks</p><p>Processing Response in 4096 Byte Chunks</p><p>Processing Response in 4096 Byte Chunks</p><p>Processing Response in 4096 Byte Chunks</p><p>Processing Response in 4096 Byte Chunks</p><p>Processing Response in 4096 Byte Chunks</p><p>Processing Response in 4096 Byte Chunks</p><p>Processing Response in 4096 Byte Chunks</p><p>Processing Response in 4096 Byte Chunks</p><p>Processing Response in 4096 Byte Chunks</p><p>Processing Response in 4096 Byte Chunks</p><p>Processing Response in 4096 Byte Chunks</p><p>Processing Response in 4096 Byte Chunks</p><p>Processing Response in 4096 Byte Chunks</p><p>Processing Response in 4096 Byte Chunks</p><p>Processing Response in 4096 Byte Chunks</p><p>Processing Response in 4096 Byte Chunks</p><p>Processing Response in 4096 Byte Chunks</p><p>Processing Response in 4096 Byte Chunks</p><p>Processing Response in 4096 Byte Chunks</p><p>Processing Response in 4096 Byte Chunks</p><p>Processing Response in 4096 Byte Chunks</p><p>Processing Response in 4096 Byte Chunks</p><p>Processing Response in 4096 Byte Chunks</p><p>Processing Response in 4096 Byte Chunks</p><p>Processing Response in 4096 Byte Chunks</p><p>Processing Response in 4096 Byte Chunks</p><p>Processing Response in 4096 Byte Chunks</p><p>Processing Response in 4096 Byte Chunks</p><p>Processing Response in 4096 Byte Chunks</p><p>Processing Response in 4096 Byte Chunks</p><p>Processing Response in 4096 Byte Chunks</p><p>Processing Response in 4096 Byte Chunks</p><p>Processing Response in 4096 Byte Chunks</p><p>Processing Response in 4096 Byte Chunks</p><p>Processing Response in 4096 Byte Chunks</p><p>Processing Response in 4096 Byte Chunks</p><p>Processing Response in 4096 Byte Chunks</p><p>Processing Response in 4096 Byte Chunks</p><p>Processing Response in 4096 Byte Chunks</p><p>Processing Response in 4096 Byte Chunks</p><p>Processing Response in 4096 Byte Chunks</p><p>Processing Response in 4096 Byte Chunks</p><p>Processing Response in 4096 Byte Chunks</p><p>Processing Response in 4096 Byte Chunks</p><p>Processing Response in 4096 Byte Chunks</p><p>Processing Response in 4096 Byte Chunks</p><p>Processing Response in 4096 Byte Chunks</p><p>Processing Response in 4096 Byte Chunks</p><p>Processing Response in 4096 Byte Chunks</p><p>Processing Response in 4096 Byte Chunks</p><p>Processing Response in 4096 Byte Chunks</p><p>Processing Response in 4096 Byte Chunks</p><p>Processing Response in 4096 Byte Chunks</p><p>Processing Response in 4096 Byte Chunks</p><p>Processing Response in 4096 Byte Chunks</p><p>Processing Response in 4096 Byte Chunks</p><p>Processing Response in 4096 Byte Chunks</p><p>Processing Response in 4096 Byte Chunks</p><p>Processing Response in 4096 Byte Chunks</p><p>Processing Response in 4096 Byte Chunks</p><p>Processing Response in 4096 Byte Chunks</p><p>Processing Response in 4096 Byte Chunks</p><p>Processing Response in 4096 Byte Chunks</p><p>Processing Response in 4096 Byte Chunks</p><p>Processing Response in 4096 Byte Chunks</p><p>Processing Response in 4096 Byte Chunks</p><p>Processing Response in 4096 Byte Chunks</p><p>Processing Response in 4096 Byte Chunks</p><p>Processing Response in 4096 Byte Chunks</p><p>Processing Response in 4096 Byte Chunks</p><p>Processing Response in 4096 Byte Chunks</p><p>Processing Response in 4096 Byte Chunks</p><p>Processing Response in 4096 Byte Chunks</p><p>Processing Response in 4096 Byte Chunks</p><p>Processing Response in 4096 Byte Chunks</p><p>Processing Response in 4096 Byte Chunks</p><p>Processing Response in 4096 Byte Chunks</p><p>Processing Response in 4096 Byte Chunks</p><p>Processing Response in 4096 Byte Chunks</p><p>Processing Response in 4096 Byte Chunks</p><p>Processing Response in 4096 Byte Chunks</p><p>Processing Response in 4096 Byte Chunks</p><p>Processing Response in 4096 Byte Chunks</p><p>Processing Response in 4096 Byte Chunks</p><p>Processing Response in 4096 Byte Chunks</p><p>Processing Response in 4096 Byte Chunks</p><p>Processing Response in 4096 Byte Chunks</p><p>Processing Response in 4096 Byte Chunks</p><p>Processing Response in 4096 Byte Chunks</p><p>Processing Response in 4096 Byte Chunks</p><p>Processing Response in 4096 Byte Chunks</p><p>Processing Response in 4096 Byte Chunks</p><p>Processing Response in 4096 Byte Chunks</p><p>Processing Response in 4096 Byte Chunks</p><p>Processing Response in 4096 Byte Chunks</p><p>Processing Response in 4096 Byte Chunks</p><p>Processing Response in 4096 Byte Chunks</p><p>Processing Response in 4096 Byte Chunks</p><p>Processing Response in 4096 Byte Chunks</p><p>Processing Response in 4096 Byte Chunks</p><p>Processing Response in 4096 Byte Chunks</p><p>Processing Response in 4096 Byte Chunks</p><p>Processing Response in 4096 Byte Chunks</p><p>Processing Response in 4096 Byte Chunks</p><p>Processing Response in 4096 Byte Chunks</p><p>Processing Response in 4096 Byte Chunks</p><p>Processing Response in 4096 Byte Chunks</p><p>Processing Response in 4096 Byte Chunks</p><p>Processing Response in 4096 Byte Chunks</p><p>Processing Response in 4096 Byte Chunks</p><p>Processing Response in 4096 Byte Chunks</p><p>Processing Response in 4096 Byte Chunks</p><p>Processing Response in 4096 Byte Chunks</p><p>Processing Response in 4096 Byte Chunks</p><p>Processing Response in 4096 Byte Chunks</p><p>Processing Response in 4096 Byte Chunks</p><p>Processing Response in 4096 Byte Chunks</p><p>Processing Response in 4096 Byte Chunks</p><p>Processing Response in 4096 Byte Chunks</p><p>Processing Response in 4096 Byte Chunks</p><p>Processing Response in 4096 Byte Chunks</p><p>Processing Response in 4096 Byte Chunks</p><p>Processing Response in 4096 Byte Chunks</p><p>Processing Response in 4096 Byte Chunks</p><p>Processing Response in 4096 Byte Chunks</p><p>Processing Response in 4096 Byte Chunks</p><p>Processing Response in 4096 Byte Chunks</p><p>Processing Response in 4096 Byte Chunks</p><p>Processing Response in 4096 Byte Chunks</p><p>Processing Response in 4096 Byte Chunks</p><p>Processing Response in 4096 Byte Chunks</p><p>Processing Response in 4096 Byte Chunks</p><p>Processing Response in 4096 Byte Chunks</p><p>Processing Response in 4096 Byte Chunks</p><p>Processing Response in 4096 Byte Chunks</p><p>Processing Response in 4096 Byte Chunks</p><p>Processing Response in 4096 Byte Chunks</p><p>Processing Response in 4096 Byte Chunks</p><p>Processing Response in 4096 Byte Chunks</p><p>Processing Response in 4096 Byte Chunks</p><p>Processing Response in 4096 Byte Chunks</p><p>Processing Response in 4096 Byte Chunks</p><p>Processing Response in 4096 Byte Chunks</p><p>Processing Response in 4096 Byte Chunks</p><p>Processing Response in 4096 Byte Chunks</p><p>Processing Response in 4096 Byte Chunks</p><p>Processing Response in 4096 Byte Chunks</p><p>Processing Response in 4096 Byte Chunks</p><p>Processing Response in 4096 Byte Chunks</p><p>Processing Response in 4096 Byte Chunks</p><p>Processing Response in 4096 Byte Chunks</p><p>Processing Response in 4096 Byte Chunks</p><p>Processing Response in 4096 Byte Chunks</p><p>Processing Response in 4096 Byte Chunks</p><p>Processing Response in 4096 Byte Chunks</p><p>Processing Response in 4096 Byte Chunks</p><p>Processing Response in 4096 Byte Chunks</p><p>Processing Response in 4096 Byte Chunks</p><p>Processing Response in 4096 Byte Chunks</p><p>Processing Response in 4096 Byte Chunks</p><p>Processing Response in 4096 Byte Chunks</p><p>Processing Response in 4096 Byte Chunks</p><p>Processing Response in 4096 Byte Chunks</p><p>Processing Response in 4096 Byte Chunks</p><p>Processing Response in 4096 Byte Chunks</p><p>Processing Response in 4096 Byte Chunks</p><p>Processing Response in 4096 Byte Chunks</p><p>Processing Response in 4096 Byte Chunks</p><p>Processing Response in 4096 Byte Chunks</p><p>Processing Response in 4096 Byte Chunks</p><p>Processing Response in 4096 Byte Chunks</p><p>Processing Response in 4096 Byte Chunks</p><p>Processing Response in 4096 Byte Chunks</p><p>Processing Response in 4096 Byte Chunks</p><p>Processing Response in 4096 Byte Chunks</p><p>Processing Response in 4096 Byte Chunks</p><p>Processing Response in 4096 Byte Chunks</p><p>Processing Response in 4096 Byte Chunks</p><p>Processing Response in 4096 Byte Chunks</p><p>Processing Response in 4096 Byte Chunks</p><p>Processing Response in 4096 Byte Chunks</p><p>Processing Response in 4096 Byte Chunks</p><p>Processing Response in 4096 Byte Chunks</p><p>Processing Response in 4096 Byte Chunks</p><p>Processing Response in 4096 Byte Chunks</p><p>Processing Response in 4096 Byte Chunks</p><p>Processing Response in 4096 Byte Chunks</p><p>Processing Response in 4096 Byte Chunks</p><p>Processing Response in 4096 Byte Chunks</p><p>Processing Response in 4096 Byte Chunks</p><p>Processing Response in 4096 Byte Chunks</p><p>Processing Response in 4096 Byte Chunks</p><p>Processing Response in 4096 Byte Chunks</p><p>Processing Response in 4096 Byte Chunks</p><p>Processing Response in 4096 Byte Chunks</p><p>Processing Response in 4096 Byte Chunks</p><p>Processing Response in 4096 Byte Chunks</p><p>Processing Response in 4096 Byte Chunks</p><p>Processing Response in 4096 Byte Chunks</p><p>Processing Response in 4096 Byte Chunks</p><p>Processing Response in 4096 Byte Chunks</p><p>Processing Response in 4096 Byte Chunks</p><p>Processing Response in 4096 Byte Chunks</p><p>Processing Response in 4096 Byte Chunks</p><p>Processing Response in 4096 Byte Chunks</p><p>Processing Response in 4096 Byte Chunks</p><p>Processing Response in 4096 Byte Chunks</p><p>Processing Response in 4096 Byte Chunks</p><p>Processing Response in 4096 Byte Chunks</p><p>Processing Response in 4096 Byte Chunks</p><p>Processing Response in 4096 Byte Chunks</p><p>Processing Response in 4096 Byte Chunks</p><p>100 16152    0 16152    0     0   3290      0 --:--:--  0:00:04 --:--:--  4128Processing Response in 4096 Byte Chunks</p><p>Processing Response in 4096 Byte Chunks</p><p>Processing Response in 4096 Byte Chunks</p><p>Processing Response in 4096 Byte Chunks</p><p>Processing Response in 4096 Byte Chunks</p><p>Processing Response in 4096 Byte Chunks</p><p>Processing Response in 4096 Byte Chunks</p><p>Processing Response in 4096 Byte Chunks</p><p>Processing Response in 4096 Byte Chunks</p><p>Processing Response in 4096 Byte Chunks</p><p>Processing Response in 4096 Byte Chunks</p><p>Processing Response in 4096 Byte Chunks</p><p>Processing Response in 4096 Byte Chunks</p><p>Processing Response in 4096 Byte Chunks</p><p>Processing Response in 4096 Byte Chunks</p><p>Processing Response in 4096 Byte Chunks</p><p>Processing Response in 4096 Byte Chunks</p><p>Processing Response in 4096 Byte Chunks</p><p>Processing Response in 4096 Byte Chunks</p><p>Processing Response in 4096 Byte Chunks</p><p>Processing Response in 4096 Byte Chunks</p><p>Processing Response in 4096 Byte Chunks</p><p>Processing Response in 4096 Byte Chunks</p><p>Processing Response in 4096 Byte Chunks</p><p>Processing Response in 4096 Byte Chunks</p><p>Processing Response in 4096 Byte Chunks</p><p>Processing Response in 4096 Byte Chunks</p><p>Processing Response in 4096 Byte Chunks</p><p>Processing Response in 4096 Byte Chunks</p><p>Processing Response in 4096 Byte Chunks</p><p>Processing Response in 4096 Byte Chunks</p><p>Processing Response in 4096 Byte Chunks</p><p>Processing Response in 4096 Byte Chunks</p><p>Processing Response in 4096 Byte Chunks</p><p>Processing Response in 4096 Byte Chunks</p><p>Processing Response in 4096 Byte Chunks</p><p>Processing Response in 4096 Byte Chunks</p><p>Processing Response in 4096 Byte Chunks</p><p>Processing Response in 4096 Byte Chunks</p><p>Processing Response in 4096 Byte Chunks</p><p>Processing Response in 4096 Byte Chunks</p><p>Processing Response in 4096 Byte Chunks</p><p>Processing Response in 4096 Byte Chunks</p><p>Processing Response in 4096 Byte Chunks</p><p>Processing Response in 4096 Byte Chunks</p><p>Processing Response in 4096 Byte Chunks</p><p>Processing Response in 4096 Byte Chunks</p><p>Processing Response in 4096 Byte Chunks</p><p>Processing Response in 4096 Byte Chunks</p><p>Processing Response in 4096 Byte Chunks</p><p>Processing Response in 4096 Byte Chunks</p><p>Processing Response in 4096 Byte Chunks</p><p>Processing Response in 4096 Byte Chunks</p><p>Processing Response in 4096 Byte Chunks</p><p>Processing Response in 4096 Byte Chunks</p><p>Processing Response in 4096 Byte Chunks</p><p>Processing Response in 4096 Byte Chunks</p><p>Processing Response in 4096 Byte Chunks</p><p>Processing Response in 4096 Byte Chunks</p><p>Processing Response in 4096 Byte Chunks</p><p>Processing Response in 4096 Byte Chunks</p><p>Processing Response in 4096 Byte Chunks</p><p>Processing Response in 4096 Byte Chunks</p><p>Processing Response in 4096 Byte Chunks</p><p>Processing Response in 4096 Byte Chunks</p><p>Processing Response in 4096 Byte Chunks</p><p>Processing Response in 4096 Byte Chunks</p><p>Processing Response in 4096 Byte Chunks</p><p>Processing Response in 4096 Byte Chunks</p><p>Processing Response in 4096 Byte Chunks</p><p>Processing Response in 4096 Byte Chunks</p><p>Processing Response in 4096 Byte Chunks</p><p>Processing Response in 4096 Byte Chunks</p><p>Processing Response in 4096 Byte Chunks</p><p>Processing Response in 4096 Byte Chunks</p><p>Processing Response in 4096 Byte Chunks</p><p>Processing Response in 4096 Byte Chunks</p><p>Processing Response in 4096 Byte Chunks</p><p>Processing Response in 4096 Byte Chunks</p><p>Processing Response in 4096 Byte Chunks</p><p>Processing Response in 4096 Byte Chunks</p><p>Processing Response in 4096 Byte Chunks</p><p>Processing Response in 4096 Byte Chunks</p><p>Processing Response in 4096 Byte Chunks</p><p>Processing Response in 4096 Byte Chunks</p><p>Processing Response in 4096 Byte Chunks</p><p>Processing Response in 4096 Byte Chunks</p><p>Processing Response in 4096 Byte Chunks</p><p>Processing Response in 4096 Byte Chunks</p><p>Processing Response in 4096 Byte Chunks</p><p>Processing Response in 4096 Byte Chunks</p><p>Processing Response in 4096 Byte Chunks</p><p>Processing Response in 4096 Byte Chunks</p><p>Processing Response in 4096 Byte Chunks</p><p>Processing Response in 4096 Byte Chunks</p><p>Processing Response in 4096 Byte Chunks</p><p>Processing Response in 4096 Byte Chunks</p><p>Processing Response in 4096 Byte Chunks</p><p>Processing Response in 4096 Byte Chunks</p><p>Processing Response in 4096 Byte Chunks</p><p>Processing Response in 4096 Byte Chunks</p><p>Processing Response in 4096 Byte Chunks</p><p>Processing Response in 4096 Byte Chunks</p><p>Processing Response in 4096 Byte Chunks</p><p>Processing Response in 4096 Byte Chunks</p><p>Processing Response in 4096 Byte Chunks</p><p>Processing Response in 4096 Byte Chunks</p><p>Processing Response in 4096 Byte Chunks</p><p>Processing Response in 4096 Byte Chunks</p><p>Processing Response in 4096 Byte Chunks</p><p>Processing Response in 4096 Byte Chunks</p><p>Processing Response in 4096 Byte Chunks</p><p>Processing Response in 4096 Byte Chunks</p><p>Processing Response in 4096 Byte Chunks</p><p>Processing Response in 4096 Byte Chunks</p><p>Processing Response in 4096 Byte Chunks</p><p>Processing Response in 4096 Byte Chunks</p><p>Processing Response in 4096 Byte Chunks</p><p>Processing Response in 4096 Byte Chunks</p><p>Processing Response in 4096 Byte Chunks</p><p>Processing Response in 4096 Byte Chunks</p><p>Processing Response in 4096 Byte Chunks</p><p>Processing Response in 4096 Byte Chunks</p><p>Processing Response in 4096 Byte Chunks</p><p>Processing Response in 4096 Byte Chunks</p><p>Processing Response in 4096 Byte Chunks</p><p>Processing Response in 4096 Byte Chunks</p><p>Processing Response in 4096 Byte Chunks</p><p>Processing Response in 4096 Byte Chunks</p><p>Processing Response in 4096 Byte Chunks</p><p>Processing Response in 4096 Byte Chunks</p><p>Processing Response in 4096 Byte Chunks</p><p>Processing Response in 4096 Byte Chunks</p><p>Processing Response in 4096 Byte Chunks</p><p>Processing Response in 4096 Byte Chunks</p><p>Processing Response in 4096 Byte Chunks</p><p>Processing Response in 4096 Byte Chunks</p><p>Processing Response in 4096 Byte Chunks</p><p>Processing Response in 4096 Byte Chunks</p><p>Processing Response in 4096 Byte Chunks</p><p>Processing Response in 4096 Byte Chunks</p><p>Processing Response in 4096 Byte Chunks</p><p>Processing Response in 4096 Byte Chunks</p><p>Processing Response in 4096 Byte Chunks</p><p>Processing Response in 4096 Byte Chunks</p><p>Processing Response in 4096 Byte Chunks</p><p>Processing Response in 4096 Byte Chunks</p><p>Processing Response in 4096 Byte Chunks</p><p>Processing Response in 4096 Byte Chunks</p><p>Processing Response in 4096 Byte Chunks</p><p>Processing Response in 4096 Byte Chunks</p><p>Processing Response in 4096 Byte Chunks</p><p>Processing Response in 4096 Byte Chunks</p><p>Processing Response in 4096 Byte Chunks</p><p>Processing Response in 4096 Byte Chunks</p><p>Processing Response in 4096 Byte Chunks</p><p>Processing Response in 4096 Byte Chunks</p><p>Processing Response in 4096 Byte Chunks</p><p>Processing Response in 4096 Byte Chunks</p><p>Processing Response in 4096 Byte Chunks</p><p>Processing Response in 4096 Byte Chunks</p><p>Processing Response in 4096 Byte Chunks</p><p>Processing Response in 4096 Byte Chunks</p><p>Processing Response in 4096 Byte Chunks</p><p>Processing Response in 4096 Byte Chunks</p><p>Processing Response in 4096 Byte Chunks</p><p>Processing Response in 4096 Byte Chunks</p><p>Processing Response in 4096 Byte Chunks</p><p>Processing Response in 4096 Byte Chunks</p><p>Processing Response in 4096 Byte Chunks</p><p>Processing Response in 4096 Byte Chunks</p><p>Processing Response in 4096 Byte Chunks</p><p>Processing Response in 4096 Byte Chunks</p><p>Processing Response in 4096 Byte Chunks</p><p>Processing Response in 4096 Byte Chunks</p><p>Processing Response in 4096 Byte Chunks</p><p>Processing Response in 4096 Byte Chunks</p><p>Processing Response in 4096 Byte Chunks</p><p>Processing Response in 4096 Byte Chunks</p><p>Processing Response in 4096 Byte Chunks</p><p>Processing Response in 4096 Byte Chunks</p><p>Processing Response in 4096 Byte Chunks</p><p>Processing Response in 4096 Byte Chunks</p><p>Processing Response in 4096 Byte Chunks</p><p>Processing Response in 4096 Byte Chunks</p><p>Processing Response in 4096 Byte Chunks</p><p>Processing Response in 4096 Byte Chunks</p><p>Processing Response in 4096 Byte Chunks</p><p>Processing Response in 4096 Byte Chunks</p><p>Processing Response in 4096 Byte Chunks</p><p>Processing Response in 4096 Byte Chunks</p><p>Processing Response in 4096 Byte Chunks</p><p>Processing Response in 4096 Byte Chunks</p><p>Processing Response in 4096 Byte Chunks</p><p>Processing Response in 4096 Byte Chunks</p><p>Processing Response in 4096 Byte Chunks</p><p>Processing Response in 4096 Byte Chunks</p><p>Processing Response in 4096 Byte Chunks</p><p>Processing Response in 4096 Byte Chunks</p><p>Processing Response in 4096 Byte Chunks</p><p>Processing Response in 4096 Byte Chunks</p><p>Processing Response in 4096 Byte Chunks</p><p>Processing Response in 4096 Byte Chunks</p><p>Processing Response in 4096 Byte Chunks</p><p>Processing Response in 4096 Byte Chunks</p><p>Processing Response in 4096 Byte Chunks</p><p>Processing Response in 4096 Byte Chunks</p><p>Processing Response in 4096 Byte Chunks</p><p>Processing Response in 4096 Byte Chunks</p><p>Processing Response in 4096 Byte Chunks</p><p>Processing Response in 4096 Byte Chunks</p><p>Processing Response in 4096 Byte Chunks</p><p>Processing Response in 4096 Byte Chunks</p><p>Processing Response in 4096 Byte Chunks</p><p>Processing Response in 4096 Byte Chunks</p><p>Processing Response in 4096 Byte Chunks</p><p>Processing Response in 4096 Byte Chunks</p><p>Processing Response in 4096 Byte Chunks</p><p>Processing Response in 4096 Byte Chunks</p><p>Processing Response in 4096 Byte Chunks</p><p>Processing Response in 4096 Byte Chunks</p><p>Processing Response in 4096 Byte Chunks</p><p>Processing Response in 4096 Byte Chunks</p><p>Processing Response in 4096 Byte Chunks</p><p>Processing Response in 4096 Byte Chunks</p><p>Processing Response in 4096 Byte Chunks</p><p>Processing Response in 4096 Byte Chunks</p><p>Processing Response in 4096 Byte Chunks</p><p>Processing Response in 4096 Byte Chunks</p><p>Processing Response in 4096 Byte Chunks</p><p>Processing Response in 4096 Byte Chunks</p><p>Processing Response in 4096 Byte Chunks</p><p>Processing Response in 4096 Byte Chunks</p><p>Processing Response in 4096 Byte Chunks</p><p>Processing Response in 4096 Byte Chunks</p><p>Processing Response in 4096 Byte Chunks</p><p>Processing Response in 4096 Byte Chunks</p><p>Processing Response in 4096 Byte Chunks</p><p>Processing Response in 4096 Byte Chunks</p><p>Processing Response in 4096 Byte Chunks</p><p>Processing Response in 4096 Byte Chunks</p><p>Processing Response in 4096 Byte Chunks</p><p>Processing Response in 4096 Byte Chunks</p><p>Processing Response in 4096 Byte Chunks</p><p>Processing Response in 4096 Byte Chunks</p><p>Processing Response in 4096 Byte Chunks</p><p>Processing Response in 4096 Byte Chunks</p><p>Processing Response in 4096 Byte Chunks</p><p>Processing Response in 4096 Byte Chunks</p><p>Processing Response in 4096 Byte Chunks</p><p>Processing Response in 4096 Byte Chunks</p><p>Processing Response in 4096 Byte Chunks</p><p>Processing Response in 4096 Byte Chunks</p><p>Processing Response in 4096 Byte Chunks</p><p>Processing Response in 4096 Byte Chunks</p><p>Processing Response in 4096 Byte Chunks</p><p>Processing Response in 4096 Byte Chunks</p><p>Processing Response in 4096 Byte Chunks</p><p>Processing Response in 4096 Byte Chunks</p><p>Processing Response in 4096 Byte Chunks</p><p>Processing Response in 4096 Byte Chunks</p><p>Processing Response in 4096 Byte Chunks</p><p>Processing Response in 4096 Byte Chunks</p><p>Processing Response in 4096 Byte Chunks</p><p>Processing Response in 4096 Byte Chunks</p><p>Processing Response in 4096 Byte Chunks</p><p>Processing Response in 4096 Byte Chunks</p><p>Processing Response in 4096 Byte Chunks</p><p>Processing Response in 4096 Byte Chunks</p><p>Processing Response in 4096 Byte Chunks</p><p>Processing Response in 4096 Byte Chunks</p><p>Processing Response in 4096 Byte Chunks</p><p>Processing Response in 4096 Byte Chunks</p><p>Processing Response in 4096 Byte Chunks</p><p>Processing Response in 4096 Byte Chunks</p><p>Processing Response in 4096 Byte Chunks</p><p>Processing Response in 4096 Byte Chunks</p><p>Processing Response in 4096 Byte Chunks</p><p>Processing Response in 4096 Byte Chunks</p><p>Processing Response in 4096 Byte Chunks</p><p>Processing Response in 4096 Byte Chunks</p><p>Processing Response in 4096 Byte Chunks</p><p>Processing Response in 4096 Byte Chunks</p><p>Processing Response in 4096 Byte Chunks</p><p>Processing Response in 4096 Byte Chunks</p><p>Processing Response in 4096 Byte Chunks</p><p>Processing Response in 4096 Byte Chunks</p><p>Processing Response in 4096 Byte Chunks</p><p>Processing Response in 4096 Byte Chunks</p><p>Processing Response in 4096 Byte Chunks</p><p>Processing Response in 4096 Byte Chunks</p><p>Processing Response in 4096 Byte Chunks</p><p>Processing Response in 4096 Byte Chunks</p><p>Processing Response in 4096 Byte Chunks</p><p>Processing Response in 4096 Byte Chunks</p><p>Processing Response in 4096 Byte Chunks</p><p>Processing Response in 4096 Byte Chunks</p><p>Processing Response in 4096 Byte Chunks</p><p>Processing Response in 4096 Byte Chunks</p><p>Processing Response in 4096 Byte Chunks</p><p>Processing Response in 4096 Byte Chunks</p><p>Processing Response in 4096 Byte Chunks</p><p>Processing Response in 4096 Byte Chunks</p><p>Processing Response in 4096 Byte Chunks</p><p>Processing Response in 4096 Byte Chunks</p><p>Processing Response in 4096 Byte Chunks</p><p>Processing Response in 4096 Byte Chunks</p><p>Processing Response in 4096 Byte Chunks</p><p>Processing Response in 4096 Byte Chunks</p><p>Processing Response in 4096 Byte Chunks</p><p>Processing Response in 4096 Byte Chunks</p><p>Processing Response in 4096 Byte Chunks</p><p>Processing Response in 4096 Byte Chunks</p><p>Processing Response in 4096 Byte Chunks</p><p>Processing Response in 4096 Byte Chunks</p><p>Processing Response in 4096 Byte Chunks</p><p>Processing Response in 4096 Byte Chunks</p><p>Processing Response in 4096 Byte Chunks</p><p>Processing Response in 4096 Byte Chunks</p><p>Processing Response in 4096 Byte Chunks</p><p>Processing Response in 4096 Byte Chunks</p><p>Processing Response in 4096 Byte Chunks</p><p>Processing Response in 4096 Byte Chunks</p><p>Processing Response in 4096 Byte Chunks</p><p>Processing Response in 4096 Byte Chunks</p><p>Processing Response in 4096 Byte Chunks</p><p>Processing Response in 4096 Byte Chunks</p><p>Processing Response in 4096 Byte Chunks</p><p>Processing Response in 4096 Byte Chunks</p><p>Processing Response in 4096 Byte Chunks</p><p>Processing Response in 4096 Byte Chunks</p><p>Processing Response in 4096 Byte Chunks</p><p>Processing Response in 4096 Byte Chunks</p><p>Processing Response in 4096 Byte Chunks</p><p>Processing Response in 4096 Byte Chunks</p><p>Processing Response in 4096 Byte Chunks</p><p>Processing Response in 4096 Byte Chunks</p><p>Processing Response in 4096 Byte Chunks</p><p>Processing Response in 4096 Byte Chunks</p><p>Processing Response in 4096 Byte Chunks</p><p>Processing Response in 4096 Byte Chunks</p><p>Processing Response in 4096 Byte Chunks</p><p>Processing Response in 4096 Byte Chunks</p><p>Processing Response in 4096 Byte Chunks</p><p>Processing Response in 4096 Byte Chunks</p><p>Processing Response in 4096 Byte Chunks</p><p>Processing Response in 4096 Byte Chunks</p><p>Processing Response in 4096 Byte Chunks</p><p>Processing Response in 4096 Byte Chunks</p><p>Processing Response in 4096 Byte Chunks</p><p>Processing Response in 4096 Byte Chunks</p><p>Processing Response in 4096 Byte Chunks</p><p>Processing Response in 4096 Byte Chunks</p><p>Processing Response in 4096 Byte Chunks</p><p>Processing Response in 4096 Byte Chunks</p><p>Processing Response in 4096 Byte Chunks</p><p>Processing Response in 4096 Byte Chunks</p><p>Processing Response in 4096 Byte Chunks</p><p>Processing Response in 4096 Byte Chunks</p><p>Processing Response in 4096 Byte Chunks</p><p>Processing Response in 4096 Byte Chunks</p><p>Processing Response in 4096 Byte Chunks</p><p>Processing Response in 4096 Byte Chunks</p><p>Processing Response in 4096 Byte Chunks</p><p>Processing Response in 4096 Byte Chunks</p><p>Processing Response in 4096 Byte Chunks</p><p>Processing Response in 4096 Byte Chunks</p><p>Processing Response in 4096 Byte Chunks</p><p>Processing Response in 4096 Byte Chunks</p><p>Processing Response in 4096 Byte Chunks</p><p>Processing Response in 4096 Byte Chunks</p><p>Processing Response in 4096 Byte Chunks</p><p>Processing Response in 4096 Byte Chunks</p><p>Processing Response in 4096 Byte Chunks</p><p>Processing Response in 4096 Byte Chunks</p><p>Processing Response in 4096 Byte Chunks</p><p>Processing Response in 4096 Byte Chunks</p><p>Processing Response in 4096 Byte Chunks</p><p>Processing Response in 4096 Byte Chunks</p><p>Processing Response in 4096 Byte Chunks</p><p>Processing Response in 4096 Byte Chunks</p><p>Processing Response in 4096 Byte Chunks</p><p>Processing Response in 4096 Byte Chunks</p><p>Processing Response in 4096 Byte Chunks</p><p>Processing Response in 4096 Byte Chunks</p><p>Processing Response in 4096 Byte Chunks</p><p>Processing Response in 4096 Byte Chunks</p><p>Processing Response in 4096 Byte Chunks</p><p>Processing Response in 4096 Byte Chunks</p><p>Processing Response in 4096 Byte Chunks</p><p>Processing Response in 4096 Byte Chunks</p><p>Processing Response in 4096 Byte Chunks</p><p>Processing Response in 4096 Byte Chunks</p><p>Processing Response in 4096 Byte Chunks</p><p>Processing Response in 4096 Byte Chunks</p><p>Processing Response in 4096 Byte Chunks</p><p>Processing Response in 4096 Byte Chunks</p><p>Processing Response in 4096 Byte Chunks</p><p>Processing Response in 4096 Byte Chunks</p><p>Processing Response in 4096 Byte Chunks</p><p>Processing Response in 4096 Byte Chunks</p><p>Processing Response in 4096 Byte Chunks</p><p>Processing Response in 4096 Byte Chunks</p><p>Processing Response in 4096 Byte Chunks</p><p>Processing Response in 4096 Byte Chunks</p><p>Processing Response in 4096 Byte Chunks</p><p>Processing Response in 4096 Byte Chunks</p><p>Processing Response in 4096 Byte Chunks</p><p>Processing Response in 4096 Byte Chunks</p><p>Processing Response in 4096 Byte Chunks</p><p>Processing Response in 4096 Byte Chunks</p><p>Processing Response in 4096 Byte Chunks</p><p>Processing Response in 4096 Byte Chunks</p><p>Processing Response in 4096 Byte Chunks</p><p>Processing Response in 4096 Byte Chunks</p><p>Processing Response in 4096 Byte Chunks</p><p>Processing Response in 4096 Byte Chunks</p><p>Processing Response in 4096 Byte Chunks</p><p>Processing Response in 4096 Byte Chunks</p><p>Processing Response in 4096 Byte Chunks</p><p>Processing Response in 4096 Byte Chunks</p><p>Processing Response in 4096 Byte Chunks</p><p>Processing Response in 4096 Byte Chunks</p><p>Processing Response in 4096 Byte Chunks</p><p>Processing Response in 4096 Byte Chunks</p><p>Processing Response in 4096 Byte Chunks</p><p>Processing Response in 4096 Byte Chunks</p><p>Processing Response in 4096 Byte Chunks</p><p>Processing Response in 4096 Byte Chunks</p><p>Processing Response in 4096 Byte Chunks</p><p>Processing Response in 4096 Byte Chunks</p><p>Processing Response in 4096 Byte Chunks</p><p>Processing Response in 4096 Byte Chunks</p><p>Processing Response in 4096 Byte Chunks</p><p>Processing Response in 4096 Byte Chunks</p><p>Processing Response in 4096 Byte Chunks</p><p>Processing Response in 4096 Byte Chunks</p><p>Processing Response in 4096 Byte Chunks</p><p>Processing Response in 4096 Byte Chunks</p><p>Processing Response in 4096 Byte Chunks</p><p>Processing Response in 4096 Byte Chunks</p><p>Processing Response in 4096 Byte Chunks</p><p>Processing Response in 4096 Byte Chunks</p><p>Processing Response in 4096 Byte Chunks</p><p>Processing Response in 4096 Byte Chunks</p><p>Processing Response in 4096 Byte Chunks</p><p>Processing Response in 4096 Byte Chunks</p><p>Processing Response in 4096 Byte Chunks</p><p>Processing Response in 4096 Byte Chunks</p><p>Processing Response in 4096 Byte Chunks</p><p>Processing Response in 4096 Byte Chunks</p><p>Processing Response in 4096 Byte Chunks</p><p>Processing Response in 4096 Byte Chunks</p><p>Processing Response in 4096 Byte Chunks</p><p>Processing Response in 4096 Byte Chunks</p><p>Processing Response in 4096 Byte Chunks</p><p>Processing Response in 4096 Byte Chunks</p><p>Processing Response in 4096 Byte Chunks</p><p>Processing Response in 4096 Byte Chunks</p><p>Processing Response in 4096 Byte Chunks</p><p>Processing Response in 4096 Byte Chunks</p><p>Processing Response in 4096 Byte Chunks</p><p>Processing Response in 4096 Byte Chunks</p><p>Processing Response in 4096 Byte Chunks</p><p>Processing Response in 4096 Byte Chunks</p><p>Processing Response in 4096 Byte Chunks</p><p>Processing Response in 4096 Byte Chunks</p><p>Processing Response in 4096 Byte Chunks</p><p>Processing Response in 4096 Byte Chunks</p><p>Processing Response in 4096 Byte Chunks</p><p>Processing Response in 4096 Byte Chunks</p><p>Processing Response in 4096 Byte Chunks</p><p>Processing Response in 4096 Byte Chunks</p><p>Processing Response in 4096 Byte Chunks</p><p>Processing Response in 4096 Byte Chunks</p><p>Processing Response in 4096 Byte Chunks</p><p>Processing Response in 4096 Byte Chunks</p><p>Processing Response in 4096 Byte Chunks</p><p>Processing Response in 4096 Byte Chunks</p><p>Processing Response in 4096 Byte Chunks</p><p>Processing Response in 4096 Byte Chunks</p><p>Processing Response in 4096 Byte Chunks</p><p>Processing Response in 4096 Byte Chunks</p><p>Processing Response in 4096 Byte Chunks</p><p>Processing Response in 4096 Byte Chunks</p><p>Processing Response in 4096 Byte Chunks</p><p>Processing Response in 4096 Byte Chunks</p><p>Processing Response in 4096 Byte Chunks</p><p>Processing Response in 4096 Byte Chunks</p><p>Processing Response in 4096 Byte Chunks</p><p>Processing Response in 4096 Byte Chunks</p><p>Processing Response in 4096 Byte Chunks</p><p>Processing Response in 4096 Byte Chunks</p><p>Processing Response in 4096 Byte Chunks</p><p>Processing Response in 4096 Byte Chunks</p><p>Processing Response in 4096 Byte Chunks</p><p>Processing Response in 4096 Byte Chunks</p><p>Processing Response in 4096 Byte Chunks</p><p>Processing Response in 4096 Byte Chunks</p><p>Processing Response in 4096 Byte Chunks</p><p>Processing Response in 4096 Byte Chunks</p><p>Processing Response in 4096 Byte Chunks</p><p>Processing Response in 4096 Byte Chunks</p><p>Processing Response in 4096 Byte Chunks</p><p>Processing Response in 4096 Byte Chunks</p><p>Processing Response in 4096 Byte Chunks</p><p>Processing Response in 4096 Byte Chunks</p><p>Processing Response in 4096 Byte Chunks</p><p>Processing Response in 4096 Byte Chunks</p><p>Processing Response in 4096 Byte Chunks</p><p>Processing Response in 4096 Byte Chunks</p><p>Processing Response in 4096 Byte Chunks</p><p>Processing Response in 4096 Byte Chunks</p><p>Processing Response in 4096 Byte Chunks</p><p>Processing Response in 4096 Byte Chunks</p><p>Processing Response in 4096 Byte Chunks</p><p>Processing Response in 4096 Byte Chunks</p><p>Processing Response in 4096 Byte Chunks</p><p>Processing Response in 4096 Byte Chunks</p><p>Processing Response in 4096 Byte Chunks</p><p>Processing Response in 4096 Byte Chunks</p><p>Processing Response in 4096 Byte Chunks</p><p>Processing Response in 4096 Byte Chunks</p><p>Processing Response in 4096 Byte Chunks</p><p>Processing Response in 4096 Byte Chunks</p><p>Processing Response in 4096 Byte Chunks</p><p>Processing Response in 4096 Byte Chunks</p><p>Processing Response in 4096 Byte Chunks</p><p>Processing Response in 4096 Byte Chunks</p><p>Processing Response in 4096 Byte Chunks</p><p>Processing Response in 4096 Byte Chunks</p><p>Processing Response in 4096 Byte Chunks</p><p>Processing Response in 4096 Byte Chunks</p><p>Processing Response in 4096 Byte Chunks</p><p>Processing Response in 4096 Byte Chunks</p><p>Processing Response in 4096 Byte Chunks</p><p>Processing Response in 4096 Byte Chunks</p><p>Processing Response in 4096 Byte Chunks</p><p>Processing Response in 4096 Byte Chunks</p><p>Processing Response in 4096 Byte Chunks</p><p>Processing Response in 4096 Byte Chunks</p><p>Processing Response in 4096 Byte Chunks</p><p>Processing Response in 4096 Byte Chunks</p><p>Processing Response in 4096 Byte Chunks</p><p>Processing Response in 4096 Byte Chunks</p><p>Processing Response in 4096 Byte Chunks</p><p>Processing Response in 4096 Byte Chunks</p><p>Processing Response in 4096 Byte Chunks</p><p>Processing Response in 4096 Byte Chunks</p><p>Processing Response in 4096 Byte Chunks</p><p>Processing Response in 4096 Byte Chunks</p><p>Processing Response in 4096 Byte Chunks</p><p>Processing Response in 4096 Byte Chunks</p><p>Processing Response in 4096 Byte Chunks</p><p>Processing Response in 4096 Byte Chunks</p><p>Processing Response in 4096 Byte Chunks</p><p>Processing Response in 4096 Byte Chunks</p><p>Processing Response in 4096 Byte Chunks</p><p>Processing Response in 4096 Byte Chunks</p><p>Processing Response in 4096 Byte Chunks</p><p>Processing Response in 4096 Byte Chunks</p><p>Processing Response in 4096 Byte Chunks</p><p>Processing Response in 4096 Byte Chunks</p><p>Processing Response in 4096 Byte Chunks</p><p>Processing Response in 4096 Byte Chunks</p><p>Processing Response in 4096 Byte Chunks</p><p>Processing Response in 4096 Byte Chunks</p><p>Processing Response in 4096 Byte Chunks</p><p>Processing Response in 4096 Byte Chunks</p><p>Processing Response in 4096 Byte Chunks</p><p>Processing Response in 4096 Byte Chunks</p><p>Processing Response in 4096 Byte Chunks</p><p>Processing Response in 4096 Byte Chunks</p><p>Processing Response in 4096 Byte Chunks</p><p>Processing Response in 4096 Byte Chunks</p><p>Processing Response in 4096 Byte Chunks</p><p>Processing Response in 4096 Byte Chunks</p><p>Processing Response in 4096 Byte Chunks</p><p>Processing Response in 4096 Byte Chunks</p><p>Processing Response in 4096 Byte Chunks</p><p>Processing Response in 4096 Byte Chunks</p><p>Processing Response in 4096 Byte Chunks</p><p>Processing Response in 4096 Byte Chunks</p><p>Processing Response in 4096 Byte Chunks</p><p>Processing Response in 4096 Byte Chunks</p><p>Processing Response in 4096 Byte Chunks</p><p>Processing Response in 4096 Byte Chunks</p><p>Processing Response in 4096 Byte Chunks</p><p>Processing Response in 4096 Byte Chunks</p><p>Processing Response in 4096 Byte Chunks</p><p>Processing Response in 4096 Byte Chunks</p><p>Processing Response in 4096 Byte Chunks</p><p>Processing Response in 4096 Byte Chunks</p><p>Processing Response in 4096 Byte Chunks</p><p>Processing Response in 4096 Byte Chunks</p><p>Processing Response in 4096 Byte Chunks</p><p>Processing Response in 4096 Byte Chunks</p><p>Processing Response in 4096 Byte Chunks</p><p>Processing Response in 4096 Byte Chunks</p><p>Processing Response in 4096 Byte Chunks</p><p>Processing Response in 4096 Byte Chunks</p><p>Processing Response in 4096 Byte Chunks</p><p>Processing Response in 4096 Byte Chunks</p><p>Processing Response in 4096 Byte Chunks</p><p>Processing Response in 4096 Byte Chunks</p><p>Processing Response in 4096 Byte Chunks</p><p>Processing Response in 4096 Byte Chunks</p><p>Processing Response in 4096 Byte Chunks</p><p>Processing Response in 4096 Byte Chunks</p><p>Processing Response in 4096 Byte Chunks</p><p>Processing Response in 4096 Byte Chunks</p><p>Processing Response in 4096 Byte Chunks</p><p>Processing Response in 4096 Byte Chunks</p><p>Processing Response in 4096 Byte Chunks</p><p>Processing Response in 4096 Byte Chunks</p><p>Processing Response in 4096 Byte Chunks</p><p>Processing Response in 4096 Byte Chunks</p><p>Processing Response in 4096 Byte Chunks</p><p>Processing Response in 4096 Byte Chunks</p><p>Processing Response in 4096 Byte Chunks</p><p>Processing Response in 4096 Byte Chunks</p><p>Processing Response in 4096 Byte Chunks</p><p>Processing Response in 4096 Byte Chunks</p><p>Processing Response in 4096 Byte Chunks</p><p>Processing Response in 4096 Byte Chunks</p><p>Processing Response in 4096 Byte Chunks</p><p>Processing Response in 4096 Byte Chunks</p><p>Processing Response in 4096 Byte Chunks</p><p>Processing Response in 4096 Byte Chunks</p><p>Processing Response in 4096 Byte Chunks</p><p>Processing Response in 4096 Byte Chunks</p><p>Processing Response in 4096 Byte Chunks</p><p>Processing Response in 4096 Byte Chunks</p><p>Processing Response in 4096 Byte Chunks</p><p>Processing Response in 4096 Byte Chunks</p><p>Processing Response in 4096 Byte Chunks</p><p>Processing Response in 4096 Byte Chunks</p><p>Processing Response in 4096 Byte Chunks</p><p>Processing Response in 4096 Byte Chunks</p><p>Processing Response in 4096 Byte Chunks</p><p>Processing Response in 4096 Byte Chunks</p><p>Processing Response in 4096 Byte Chunks</p><p>Processing Response in 4096 Byte Chunks</p><p>Processing Response in 4096 Byte Chunks</p><p>Processing Response in 4096 Byte Chunks</p><p>Processing Response in 4096 Byte Chunks</p><p>Processing Response in 4096 Byte Chunks</p><p>Processing Response in 4096 Byte Chunks</p><p>Processing Response in 4096 Byte Chunks</p><p>Processing Response in 4096 Byte Chunks</p><p>Processing Response in 4096 Byte Chunks</p><p>Processing Response in 4096 Byte Chunks</p><p>Processing Response in 4096 Byte Chunks</p><p>Processing Response in 4096 Byte Chunks</p><p>Processing Response in 4096 Byte Chunks</p><p>Processing Response in 4096 Byte Chunks</p><p>Processing Response in 4096 Byte Chunks</p><p>Processing Response in 4096 Byte Chunks</p><p>Processing Response in 4096 Byte Chunks</p><p>Processing Response in 4096 Byte Chunks</p><p>Processing Response in 4096 Byte Chunks</p><p>Processing Response in 4096 Byte Chunks</p><p>Processing Response in 4096 Byte Chunks</p><p>Processing Response in 4096 Byte Chunks</p><p>Processing Response in 4096 Byte Chunks</p><p>Processing Response in 4096 Byte Chunks</p><p>Processing Response in 4096 Byte Chunks</p><p>Processing Response in 4096 Byte Chunks</p><p>Processing Response in 4096 Byte Chunks</p><p>Processing Response in 4096 Byte Chunks</p><p>Processing Response in 4096 Byte Chunks</p><p>Processing Response in 4096 Byte Chunks</p><p>Processing Response in 4096 Byte Chunks</p><p>Processing Response in 4096 Byte Chunks</p><p>Processing Response in 4096 Byte Chunks</p><p>Processing Response in 4096 Byte Chunks</p><p>Processing Response in 4096 Byte Chunks</p><p>Processing Response in 4096 Byte Chunks</p><p>Processing Response in 4096 Byte Chunks</p><p>Processing Response in 4096 Byte Chunks</p><p>Processing Response in 4096 Byte Chunks</p><p>Processing Response in 4096 Byte Chunks</p><p>Processing Response in 4096 Byte Chunks</p><p>Processing Response in 4096 Byte Chunks</p><p>Processing Response in 4096 Byte Chunks</p><p>Processing Response in 4096 Byte Chunks</p><p>Processing Response in 4096 Byte Chunks</p><p>Processing Response in 4096 Byte Chunks</p><p>Processing Response in 4096 Byte Chunks</p><p>Processing Response in 4096 Byte Chunks</p><p>Processing Response in 4096 Byte Chunks</p><p>Processing Response in 4096 Byte Chunks</p><p>Processing Response in 4096 Byte Chunks</p><p>Processing Response in 4096 Byte Chunks</p><p>Processing Response in 4096 Byte Chunks</p><p>Processing Response in 4096 Byte Chunks</p><p>Processing Response in 4096 Byte Chunks</p><p>Processing Response in 4096 Byte Chunks</p><p>Processing Response in 4096 Byte Chunks</p><p>Processing Response in 4096 Byte Chunks</p><p>Processing Response in 4096 Byte Chunks</p><p>Processing Response in 4096 Byte Chunks</p><p>Processing Response in 4096 Byte Chunks</p><p>Processing Response in 4096 Byte Chunks</p><p>Processing Response in 4096 Byte Chunks</p><p>Processing Response in 4096 Byte Chunks</p><p>Processing Response in 4096 Byte Chunks</p><p>Processing Response in 4096 Byte Chunks</p><p>Processing Response in 4096 Byte Chunks</p><p>Processing Response in 4096 Byte Chunks</p><p>Processing Response in 4096 Byte Chunks</p><p>Processing Response in 4096 Byte Chunks</p><p>Processing Response in 4096 Byte Chunks</p><p>Processing Response in 4096 Byte Chunks</p><p>Processing Response in 4096 Byte Chunks</p><p>Processing Response in 4096 Byte Chunks</p><p>Processing Response in 4096 Byte Chunks</p><p>Processing Response in 4096 Byte Chunks</p><p>Processing Response in 4096 Byte Chunks</p><p>Processing Response in 4096 Byte Chunks</p><p>Processing Response in 4096 Byte Chunks</p><p>Processing Response in 4096 Byte Chunks</p><p>Processing Response in 4096 Byte Chunks</p><p>Processing Response in 4096 Byte Chunks</p><p>Processing Response in 4096 Byte Chunks</p><p>Processing Response in 4096 Byte Chunks</p><p>Processing Response in 4096 Byte Chunks</p><p>Processing Response in 4096 Byte Chunks</p><p>Processing Response in 4096 Byte Chunks</p><p>Processing Response in 4096 Byte Chunks</p><p>Processing Response in 4096 Byte Chunks</p><p>Processing Response in 4096 Byte Chunks</p><p>Processing Response in 4096 Byte Chunks</p><p>Processing Response in 4096 Byte Chunks</p><p>Processing Response in 4096 Byte Chunks</p><p>Processing Response in 4096 Byte Chunks</p><p>Processing Response in 4096 Byte Chunks</p><p>Processing Response in 4096 Byte Chunks</p><p>Processing Response in 4096 Byte Chunks</p><p>Processing Response in 4096 Byte Chunks</p><p>Processing Response in 4096 Byte Chunks</p><p>Processing Response in 4096 Byte Chunks</p><p>Processing Response in 4096 Byte Chunks</p><p>Processing Response in 4096 Byte Chunks</p><p>Processing Response in 4096 Byte Chunks</p><p>Processing Response in 4096 Byte Chunks</p><p>Processing Response in 4096 Byte Chunks</p><p>Processing Response in 4096 Byte Chunks</p><p>Processing Response in 4096 Byte Chunks</p><p>Processing Response in 4096 Byte Chunks</p><p>Processing Response in 4096 Byte Chunks</p><p>Processing Response in 4096 Byte Chunks</p><p>Processing Response in 4096 Byte Chunks</p><p>Processing Response in 4096 Byte Chunks</p><p>Processing Response in 4096 Byte Chunks</p><p>Processing Response in 4096 Byte Chunks</p><p>Processing Response in 4096 Byte Chunks</p><p>Processing Response in 4096 Byte Chunks</p><p>Processing Response in 4096 Byte Chunks</p><p>Processing Response in 4096 Byte Chunks</p><p>Processing Response in 4096 Byte Chunks</p><p>Processing Response in 4096 Byte Chunks</p><p>Processing Response in 4096 Byte Chunks</p><p>Processing Response in 4096 Byte Chunks</p><p>Processing Response in 4096 Byte Chunks</p><p>Processing Response in 4096 Byte Chunks</p><p>Processing Response in 4096 Byte Chunks</p><p>Processing Response in 4096 Byte Chunks</p><p>Processing Response in 4096 Byte Chunks</p><p>Processing Response in 4096 Byte Chunks</p><p>Processing Response in 4096 Byte Chunks</p><p>Processing Response in 4096 Byte Chunks</p><p>Processing Response in 4096 Byte Chunks</p><p>Processing Response in 4096 Byte Chunks</p><p>Processing Response in 4096 Byte Chunks</p><p>Processing Response in 4096 Byte Chunks</p><p>Processing Response in 4096 Byte Chunks</p><p>Processing Response in 4096 Byte Chunks</p><p>Processing Response in 4096 Byte Chunks</p><p>Processing Response in 4096 Byte Chunks</p><p>Processing Response in 4096 Byte Chunks</p><p>Processing Response in 4096 Byte Chunks</p><p>Processing Response in 4096 Byte Chunks</p><p>Processing Response in 4096 Byte Chunks</p><p>Processing Response in 4096 Byte Chunks</p><p>Processing Response in 4096 Byte Chunks</p><p>Processing Response in 4096 Byte Chunks</p><p>Processing Response in 4096 Byte Chunks</p><p>Processing Response in 4096 Byte Chunks</p><p>Processing Response in 4096 Byte Chunks</p><p>Processing Response in 4096 Byte Chunks</p><p>Processing Response in 4096 Byte Chunks</p><p>Processing Response in 4096 Byte Chunks</p><p>Processing Response in 4096 Byte Chunks</p><p>Processing Response in 4096 Byte Chunks</p><p>Processing Response in 4096 Byte Chunks</p><p>Processing Response in 4096 Byte Chunks</p><p>Processing Response in 4096 Byte Chunks</p><p>Processing Response in 4096 Byte Chunks</p><p>Processing Response in 4096 Byte Chunks</p><p>Processing Response in 4096 Byte Chunks</p><p>Processing Response in 4096 Byte Chunks</p><p>Processing Response in 4096 Byte Chunks</p><p>Processing Response in 4096 Byte Chunks</p><p>Processing Response in 4096 Byte Chunks</p><p>Processing Response in 4096 Byte Chunks</p><p>Processing Response in 4096 Byte Chunks</p><p>Processing Response in 4096 Byte Chunks</p><p>Processing Response in 4096 Byte Chunks</p><p>Processing Response in 4096 Byte Chunks</p><p>Processing Response in 4096 Byte Chunks</p><p>Processing Response in 4096 Byte Chunks</p><p>Processing Response in 4096 Byte Chunks</p><p>Processing Response in 4096 Byte Chunks</p><p>Processing Response in 4096 Byte Chunks</p><p>Processing Response in 4096 Byte Chunks</p><p>Processing Response in 4096 Byte Chunks</p><p>Processing Response in 4096 Byte Chunks</p><p>Processing Response in 4096 Byte Chunks</p><p>Processing Response in 4096 Byte Chunks</p><p>Processing Response in 4096 Byte Chunks</p><p>Processing Response in 4096 Byte Chunks</p><p>Processing Response in 4096 Byte Chunks</p><p>Processing Response in 4096 Byte Chunks</p><p>Processing Response in 4096 Byte Chunks</p><p>Processing Response in 4096 Byte Chunks</p><p>Processing Response in 4096 Byte Chunks</p><p>Processing Response in 4096 Byte Chunks</p><p>Processing Response in 4096 Byte Chunks</p><p>Processing Response in 4096 Byte Chunks</p><p>Processing Response in 4096 Byte Chunks</p><p>Processing Response in 4096 Byte Chunks</p><p>Processing Response in 4096 Byte Chunks</p><p>Processing Response in 4096 Byte Chunks</p><p>Processing Response in 4096 Byte Chunks</p><p>Processing Response in 4096 Byte Chunks</p><p>Processing Response in 4096 Byte Chunks</p><p>Processing Response in 4096 Byte Chunks</p><p>Processing Response in 4096 Byte Chunks</p><p>Processing Response in 4096 Byte Chunks</p><p>Processing Response in 4096 Byte Chunks</p><p>Processing Response in 4096 Byte Chunks</p><p>Processing Response in 4096 Byte Chunks</p><p>Processing Response in 4096 Byte Chunks</p><p>Processing Response in 4096 Byte Chunks</p><p>Processing Response in 4096 Byte Chunks</p><p>Processing Response in 4096 Byte Chunks</p><p>Processing Response in 4096 Byte Chunks</p><p>Processing Response in 4096 Byte Chunks</p><p>Processing Response in 4096 Byte Chunks</p><p>Processing Response in 4096 Byte Chunks</p><p>Processing Response in 4096 Byte Chunks</p><p>Processing Response in 4096 Byte Chunks</p><p>Processing Response in 4096 Byte Chunks</p><p>Processing Response in 4096 Byte Chunks</p><p>Processing Response in 4096 Byte Chunks</p><p>Processing Response in 4096 Byte Chunks</p><p>Processing Response in 4096 Byte Chunks</p><p>Processing Response in 4096 Byte Chunks</p><p>Processing Response in 4096 Byte Chunks</p><p>Processing Response in 4096 Byte Chunks</p><p>Processing Response in 4096 Byte Chunks</p><p>Processing Response in 4096 Byte Chunks</p><p>Processing Response in 4096 Byte Chunks</p><p>Processing Response in 4096 Byte Chunks</p><p>Processing Response in 4096 Byte Chunks</p><p>Processing Response in 4096 Byte Chunks</p><p>Processing Response in 4096 Byte Chunks</p><p>Processing Response in 4096 Byte Chunks</p><p>Processing Response in 4096 Byte Chunks</p><p>Processing Response in 4096 Byte Chunks</p><p>Processing Response in 4096 Byte Chunks</p><p>Processing Response in 4096 Byte Chunks</p><p>Processing Response in 4096 Byte Chunks</p><p>Processing Response in 4096 Byte Chunks</p><p>Processing Response in 4096 Byte Chunks</p><p>Processing Response in 4096 Byte Chunks</p><p>Processing Response in 4096 Byte Chunks</p><p>Processing Response in 4096 Byte Chunks</p><p>Processing Response in 4096 Byte Chunks</p><p>Processing Response in 4096 Byte Chunks</p><p>Processing Response in 4096 Byte Chunks</p><p>Processing Response in 4096 Byte Chunks</p><p>Processing Response in 4096 Byte Chunks</p><p>Processing Response in 4096 Byte Chunks</p><p>Processing Response in 4096 Byte Chunks</p><p>Processing Response in 4096 Byte Chunks</p><p>Processing Response in 4096 Byte Chunks</p><p>Processing Response in 4096 Byte Chunks</p><p>Processing Response in 4096 Byte Chunks</p><p>Processing Response in 4096 Byte Chunks</p><p>Processing Response in 4096 Byte Chunks</p><p>Processing Response in 4096 Byte Chunks</p><p>Processing Response in 4096 Byte Chunks</p><p>Processing Response in 4096 Byte Chunks</p><p>Processing Response in 4096 Byte Chunks</p><p>Processing Response in 4096 Byte Chunks</p><p>Processing Response in 4096 Byte Chunks</p><p>Processing Response in 4096 Byte Chunks</p><p>Processing Response in 4096 Byte Chunks</p><p>Processing Response in 4096 Byte Chunks</p><p>Processing Response in 4096 Byte Chunks</p><p>Processing Response in 4096 Byte Chunks</p><p>Processing Response in 4096 Byte Chunks</p><p>Processing Response in 4096 Byte Chunks</p><p>Processing Response in 4096 Byte Chunks</p><p>Processing Response in 4096 Byte Chunks</p><p>Processing Response in 4096 Byte Chunks</p><p>Processing Response in 4096 Byte Chunks</p><p>Processing Response in 4096 Byte Chunks</p><p>Processing Response in 4096 Byte Chunks</p><p>Processing Response in 4096 Byte Chunks</p><p>Processing Response in 4096 Byte Chunks</p><p>Processing Response in 4096 Byte Chunks</p><p>Processing Response in 4096 Byte Chunks</p><p>Processing Response in 4096 Byte Chunks</p><p>Processing Response in 4096 Byte Chunks</p><p>Processing Response in 4096 Byte Chunks</p><p>Processing Response in 4096 Byte Chunks</p><p>Processing Response in 4096 Byte Chunks</p><p>Processing Response in 4096 Byte Chunks</p><p>Processing Response in 4096 Byte Chunks</p><p>Processing Response in 4096 Byte Chunks</p><p>Processing Response in 4096 Byte Chunks</p><p>Processing Response in 4096 Byte Chunks</p><p>Processing Response in 4096 Byte Chunks</p><p>Processing Response in 4096 Byte Chunks</p><p>Processing Response in 4096 Byte Chunks</p><p>Processing Response in 4096 Byte Chunks</p><p>Processing Response in 4096 Byte Chunks</p><p>Processing Response in 4096 Byte Chunks</p><p>Processing Response in 4096 Byte Chunks</p><p>Processing Response in 4096 Byte Chunks</p><p>Processing Response in 4096 Byte Chunks</p><p>Processing Response in 4096 Byte Chunks</p><p>Processing Response in 4096 Byte Chunks</p><p>Processing Response in 4096 Byte Chunks</p><p>Processing Response in 4096 Byte Chunks</p><p>Processing Response in 4096 Byte Chunks</p><p>Processing Response in 4096 Byte Chunks</p><p>Processing Response in 4096 Byte Chunks</p><p>Processing Response in 4096 Byte Chunks</p><p>Processing Response in 4096 Byte Chunks</p><p>Processing Response in 4096 Byte Chunks</p><p>Processing Response in 4096 Byte Chunks</p><p>Processing Response in 4096 Byte Chunks</p><p>Processing Response in 4096 Byte Chunks</p><p>Processing Response in 4096 Byte Chunks</p><p>Processing Response in 4096 Byte Chunks</p><p>Processing Response in 4096 Byte Chunks</p><p>Processing Response in 4096 Byte Chunks</p><p>Processing Response in 4096 Byte Chunks</p><p>Processing Response in 4096 Byte Chunks</p><p>Processing Response in 4096 Byte Chunks</p><p>Processing Response in 4096 Byte Chunks</p><p>Processing Response in 4096 Byte Chunks</p><p>Processing Response in 4096 Byte Chunks</p><p>Processing Response in 4096 Byte Chunks</p><p>Processing Response in 4096 Byte Chunks</p><p>Processing Response in 4096 Byte Chunks</p><p>Processing Response in 4096 Byte Chunks</p><p>Processing Response in 4096 Byte Chunks</p><p>Processing Response in 4096 Byte Chunks</p><p>Processing Response in 4096 Byte Chunks</p><p>Processing Response in 4096 Byte Chunks</p><p>Processing Response in 4096 Byte Chunks</p><p>Processing Response in 4096 Byte Chunks</p><p>Processing Response in 4096 Byte Chunks</p><p>Processing Response in 4096 Byte Chunks</p><p>Processing Response in 4096 Byte Chunks</p><p>Processing Response in 4096 Byte Chunks</p><p>Processing Response in 4096 Byte Chunks</p><p>Processing Response in 4096 Byte Chunks</p><p>Processing Response in 4096 Byte Chunks</p><p>Processing Response in 4096 Byte Chunks</p><p>Processing Response in 4096 Byte Chunks</p><p>Processing Response in 4096 Byte Chunks</p><p>Processing Response in 4096 Byte Chunks</p><p>Processing Response in 4096 Byte Chunks</p><p>Processing Response in 4096 Byte Chunks</p><p>Processing Response in 4096 Byte Chunks</p><p>Processing Response in 4096 Byte Chunks</p><p>Processing Response in 4096 Byte Chunks</p><p>Processing Response in 4096 Byte Chunks</p><p>Processing Response in 4096 Byte Chunks</p><p>Processing Response in 4096 Byte Chunks</p><p>Processing Response in 4096 Byte Chunks</p><p>Processing Response in 4096 Byte Chunks</p><p>Processing Response in 4096 Byte Chunks</p><p>Processing Response in 4096 Byte Chunks</p><p>Processing Response in 4096 Byte Chunks</p><p>Processing Response in 4096 Byte Chunks</p><p>Processing Response in 4096 Byte Chunks</p><p>Processing Response in 4096 Byte Chunks</p><p>Processing Response in 4096 Byte Chunks</p><p>Processing Response in 4096 Byte Chunks</p><p>Processing Response in 4096 Byte Chunks</p><p>Processing Response in 4096 Byte Chunks</p><p>Processing Response in 4096 Byte Chunks</p><p>Processing Response in 4096 Byte Chunks</p><p>Processing Response in 4096 Byte Chunks</p><p>Processing Response in 4096 Byte Chunks</p><p>Processing Response in 4096 Byte Chunks</p><p>Processing Response in 4096 Byte Chunks</p><p>Processing Response in 4096 Byte Chunks</p><p>Processing Response in 4096 Byte Chunks</p><p>Processing Response in 4096 Byte Chunks</p><p>Processing Response in 4096 Byte Chunks</p><p>Processing Response in 4096 Byte Chunks</p><p>Processing Response in 4096 Byte Chunks</p><p>Processing Response in 4096 Byte Chunks</p><p>Processing Response in 4096 Byte Chunks</p><p>Processing Response in 4096 Byte Chunks</p><p>Processing Response in 4096 Byte Chunks</p><p>Processing Response in 4096 Byte Chunks</p><p>Processing Response in 4096 Byte Chunks</p><p>Processing Response in 4096 Byte Chunks</p><p>Processing Response in 4096 Byte Chunks</p><p>Processing Response in 4096 Byte Chunks</p><p>Processing Response in 4096 Byte Chunks</p><p>Processing Response in 4096 Byte Chunks</p><p>Processing Response in 4096 Byte Chunks</p><p>Processing Response in 4096 Byte Chunks</p><p>Processing Response in 4096 Byte Chunks</p><p>Processing Response in 4096 Byte Chunks</p><p>Processing Response in 4096 Byte Chunks</p><p>Processing Response in 4096 Byte Chunks</p><p>Processing Response in 4096 Byte Chunks</p><p>Processing Response in 4096 Byte Chunks</p><p>Processing Response in 4096 Byte Chunks</p><p>Processing Response in 4096 Byte Chunks</p><p>Processing Response in 4096 Byte Chunks</p><p>Processing Response in 4096 Byte Chunks</p><p>Processing Response in 4096 Byte Chunks</p><p>Processing Response in 4096 Byte Chunks</p><p>Processing Response in 4096 Byte Chunks</p><p>Processing Response in 4096 Byte Chunks</p><p>Processing Response in 4096 Byte Chunks</p><p>Processing Response in 4096 Byte Chunks</p><p>Processing Response in 4096 Byte Chunks</p><p>Processing Response in 4096 Byte Chunks</p><p>Processing Response in 4096 Byte Chunks</p><p>Processing Response in 4096 Byte Chunks</p><p>Processing Response in 4096 Byte Chunks</p><p>Processing Response in 4096 Byte Chunks</p><p>Processing Response in 4096 Byte Chunks</p><p>Processing Response in 4096 Byte Chunks</p><p>Processing Response in 4096 Byte Chunks</p><p>Processing Response in 4096 Byte Chunks</p><p>Processing Response in 4096 Byte Chunks</p><p>Processing Response in 4096 Byte Chunks</p><p>Processing Response in 4096 Byte Chunks</p><p>Processing Response in 4096 Byte Chunks</p><p>Processing Response in 4096 Byte Chunks</p><p>Processing Response in 4096 Byte Chunks</p><p>Processing Response in 4096 Byte Chunks</p><p>Processing Response in 4096 Byte Chunks</p><p>Processing Response in 4096 Byte Chunks</p><p>Processing Response in 4096 Byte Chunks</p><p>Processing Response in 4096 Byte Chunks</p><p>Processing Response in 4096 Byte Chunks</p><p>Processing Response in 4096 Byte Chunks</p><p>Processing Response in 4096 Byte Chunks</p><p>Processing Response in 4096 Byte Chunks</p><p>Processing Response in 4096 Byte Chunks</p><p>Processing Response in 4096 Byte Chunks</p><p>Processing Response in 4096 Byte Chunks</p><p>Processing Response in 4096 Byte Chunks</p><p>Processing Response in 4096 Byte Chunks</p><p>Processing Response in 4096 Byte Chunks</p><p>Processing Response in 4096 Byte Chunks</p><p>Processing Response in 4096 Byte Chunks</p><p>Processing Response in 4096 Byte Chunks</p><p>Processing Response in 4096 Byte Chunks</p><p>Processing Response in 4096 Byte Chunks</p><p>Processing Response in 4096 Byte Chunks</p><p>Processing Response in 4096 Byte Chunks</p><p>Processing Response in 4096 Byte Chunks</p><p>Processing Response in 4096 Byte Chunks</p><p>Processing Response in 4096 Byte Chunks</p><p>Processing Response in 4096 Byte Chunks</p><p>Processing Response in 4096 Byte Chunks</p><p>Processing Response in 4096 Byte Chunks</p><p>Processing Response in 4096 Byte Chunks</p><p>Processing Response in 4096 Byte Chunks</p><p>Processing Response in 4096 Byte Chunks</p><p>Processing Response in 4096 Byte Chunks</p><p>Processing Response in 4096 Byte Chunks</p><p>Processing Response in 4096 Byte Chunks</p><p>Processing Response in 4096 Byte Chunks</p><p>Processing Response in 4096 Byte Chunks</p><p>Processing Response in 4096 Byte Chunks</p><p>Processing Response in 4096 Byte Chunks</p><p>Processing Response in 4096 Byte Chunks</p><p>Processing Response in 4096 Byte Chunks</p><p>Processing Response in 4096 Byte Chunks</p><p>Processing Response in 4096 Byte Chunks</p><p>Processing Response in 4096 Byte Chunks</p><p>Processing Response in 4096 Byte Chunks</p><p>Processing Response in 4096 Byte Chunks</p><p>Processing Response in 4096 Byte Chunks</p><p>Processing Response in 4096 Byte Chunks</p><p>Processing Response in 4096 Byte Chunks</p><p>Processing Response in 4096 Byte Chunks</p><p>Processing Response in 4096 Byte Chunks</p><p>Processing Response in 4096 Byte Chunks</p><p>Processing Response in 4096 Byte Chunks</p><p>Processing Response in 4096 Byte Chunks</p><p>Processing Response in 4096 Byte Chunks</p><p>Processing Response in 4096 Byte Chunks</p><p>Processing Response in 4096 Byte Chunks</p><p>Processing Response in 4096 Byte Chunks</p><p>Processing Response in 4096 Byte Chunks</p><p>Processing Response in 4096 Byte Chunks</p><p>Processing Response in 4096 Byte Chunks</p><p>Processing Response in 4096 Byte Chunks</p><p>Processing Response in 4096 Byte Chunks</p><p>Processing Response in 4096 Byte Chunks</p><p>Processing Response in 4096 Byte Chunks</p><p>Processing Response in 4096 Byte Chunks</p><p>Processing Response in 4096 Byte Chunks</p><p>Processing Response in 4096 Byte Chunks</p><p>Processing Response in 4096 Byte Chunks</p><p>Processing Response in 4096 Byte Chunks</p><p>Processing Response in 4096 Byte Chunks</p><p>Processing Response in 4096 Byte Chunks</p><p>Processing Response in 4096 Byte Chunks</p><p>Processing Response in 4096 Byte Chunks</p><p>Processing Response in 4096 Byte Chunks</p><p>Processing Response in 4096 Byte Chunks</p><p>Processing Response in 4096 Byte Chunks</p><p>Processing Response in 4096 Byte Chunks</p><p>Processing Response in 4096 Byte Chunks</p><p>Processing Response in 4096 Byte Chunks</p><p>Processing Response in 4096 Byte Chunks</p><p>Processing Response in 4096 Byte Chunks</p><p>Processing Response in 4096 Byte Chunks</p><p>Processing Response in 4096 Byte Chunks</p><p>Processing Response in 4096 Byte Chunks</p><p>Processing Response in 4096 Byte Chunks</p><p>Processing Response in 4096 Byte Chunks</p><p>Processing Response in 4096 Byte Chunks</p><p>Processing Response in 4096 Byte Chunks</p><p>Processing Response in 4096 Byte Chunks</p><p>Processing Response in 4096 Byte Chunks</p><p>Processing Response in 4096 Byte Chunks</p><p>Processing Response in 4096 Byte Chunks</p><p>Processing Response in 4096 Byte Chunks</p><p>Processing Response in 4096 Byte Chunks</p><p>Processing Response in 4096 Byte Chunks</p><p>Processing Response in 4096 Byte Chunks</p><p>Processing Response in 4096 Byte Chunks</p><p>Processing Response in 4096 Byte Chunks</p><p>Processing Response in 4096 Byte Chunks</p><p>Processing Response in 4096 Byte Chunks</p><p>Processing Response in 4096 Byte Chunks</p><p>Processing Response in 4096 Byte Chunks</p><p>Processing Response in 4096 Byte Chunks</p><p>Processing Response in 4096 Byte Chunks</p><p>Processing Response in 4096 Byte Chunks</p><p>Processing Response in 4096 Byte Chunks</p><p>Processing Response in 4096 Byte Chunks</p><p>Processing Response in 4096 Byte Chunks</p><p>Processing Response in 4096 Byte Chunks</p><p>Processing Response in 4096 Byte Chunks</p><p>Processing Response in 4096 Byte Chunks</p><p>Processing Response in 4096 Byte Chunks</p><p>Processing Response in 4096 Byte Chunks</p><p>Processing Response in 4096 Byte Chunks</p><p>Processing Response in 4096 Byte Chunks</p><p>Processing Response in 4096 Byte Chunks</p><p>Processing Response in 4096 Byte Chunks</p><p>Processing Response in 4096 Byte Chunks</p><p>Processing Response in 4096 Byte Chunks</p><p>Processing Response in 4096 Byte Chunks</p><p>Processing Response in 4096 Byte Chunks</p><p>Processing Response in 4096 Byte Chunks</p><p>Processing Response in 4096 Byte Chunks</p><p>Processing Response in 4096 Byte Chunks</p><p>Processing Response in 4096 Byte Chunks</p><p>Processing Response in 4096 Byte Chunks</p><p>Processing Response in 4096 Byte Chunks</p><p>Processing Response in 4096 Byte Chunks</p><p>Processing Response in 4096 Byte Chunks</p><p>Processing Response in 4096 Byte Chunks</p><p>Processing Response in 4096 Byte Chunks</p><p>Processing Response in 4096 Byte Chunks</p><p>Processing Response in 4096 Byte Chunks</p><p>Processing Response in 4096 Byte Chunks</p><p>Processing Response in 4096 Byte Chunks</p><p>Processing Response in 4096 Byte Chunks</p><p>Processing Response in 4096 Byte Chunks</p><p>Processing Response in 4096 Byte Chunks</p><p>Processing Response in 4096 Byte Chunks</p><p>Processing Response in 4096 Byte Chunks</p><p>Processing Response in 4096 Byte Chunks</p><p>Processing Response in 4096 Byte Chunks</p><p>Processing Response in 4096 Byte Chunks</p><p>Processing Response in 4096 Byte Chunks</p><p>Processing Response in 4096 Byte Chunks</p><p>Processing Response in 4096 Byte Chunks</p><p>Processing Response in 4096 Byte Chunks</p><p>Processing Response in 4096 Byte Chunks</p><p>Processing Response in 4096 Byte Chunks</p><p>Processing Response in 4096 Byte Chunks</p><p>Processing Response in 4096 Byte Chunks</p><p>Processing Response in 4096 Byte Chunks</p><p>Processing Response in 4096 Byte Chunks</p><p>Processing Response in 4096 Byte Chunks</p><p>Processing Response in 4096 Byte Chunks</p><p>Processing Response in 4096 Byte Chunks</p><p>Processing Response in 4096 Byte Chunks</p><p>Processing Response in 4096 Byte Chunks</p><p>Processing Response in 4096 Byte Chunks</p><p>Processing Response in 4096 Byte Chunks</p><p>Processing Response in 4096 Byte Chunks</p><p>Processing Response in 4096 Byte Chunks</p><p>Processing Response in 4096 Byte Chunks</p><p>Processing Response in 4096 Byte Chunks</p><p>Processing Response in 4096 Byte Chunks</p><p>Processing Response in 4096 Byte Chunks</p><p>Processing Response in 4096 Byte Chunks</p><p>Processing Response in 4096 Byte Chunks</p><p>Processing Response in 4096 Byte Chunks</p><p>Processing Response in 4096 Byte Chunks</p><p>Processing Response in 4096 Byte Chunks</p><p>Processing Response in 4096 Byte Chunks</p><p>Processing Response in 4096 Byte Chunks</p><p>Processing Response in 4096 Byte Chunks</p><p>Processing Response in 4096 Byte Chunks</p><p>Processing Response in 4096 Byte Chunks</p><p>Processing Response in 4096 Byte Chunks</p><p>Processing Response in 4096 Byte Chunks</p><p>Processing Response in 4096 Byte Chunks</p><p>Processing Response in 4096 Byte Chunks</p><p>Processing Response in 4096 Byte Chunks</p><p>Processing Response in 4096 Byte Chunks</p><p>Processing Response in 4096 Byte Chunks</p><p>Processing Response in 4096 Byte Chunks</p><p>Processing Response in 4096 Byte Chunks</p><p>Processing Response in 4096 Byte Chunks</p><p>Processing Response in 4096 Byte Chunks</p><p>Processing Response in 4096 Byte Chunks</p><p>Processing Response in 4096 Byte Chunks</p><p>Processing Response in 4096 Byte Chunks</p><p>Processing Response in 4096 Byte Chunks</p><p>Processing Response in 4096 Byte Chunks</p><p>Processing Response in 4096 Byte Chunks</p><p>Processing Response in 4096 Byte Chunks</p><p>Processing Response in 4096 Byte Chunks</p><p>Processing Response in 4096 Byte Chunks</p><p>Processing Response in 4096 Byte Chunks</p><p>Processing Response in 4096 Byte Chunks</p><p>Processing Response in 4096 Byte Chunks</p><p>Processing Response in 4096 Byte Chunks</p><p>Processing Response in 4096 Byte Chunks</p><p>Processing Response in 4096 Byte Chunks</p><p>Processing Response in 4096 Byte Chunks</p><p>Processing Response in 4096 Byte Chunks</p><p>Processing Response in 4096 Byte Chunks</p><p>Processing Response in 4096 Byte Chunks</p><p>Processing Response in 4096 Byte Chunks</p><p>Processing Response in 4096 Byte Chunks</p><p>Processing Response in 4096 Byte Chunks</p><p>Processing Response in 4096 Byte Chunks</p><p>Processing Response in 4096 Byte Chunks</p><p>Processing Response in 4096 Byte Chunks</p><p>Processing Response in 4096 Byte Chunks</p><p>Processing Response in 4096 Byte Chunks</p><p>Processing Response in 4096 Byte Chunks</p><p>Processing Response in 4096 Byte Chunks</p><p>Processing Response in 4096 Byte Chunks</p><p>Processing Response in 4096 Byte Chunks</p><p>Processing Response in 4096 Byte Chunks</p><p>Processing Response in 4096 Byte Chunks</p><p>Processing Response in 4096 Byte Chunks</p><p>Processing Response in 4096 Byte Chunks</p><p>Processing Response in 4096 Byte Chunks</p><p>Processing Response in 4096 Byte Chunks</p><p>Processing Response in 4096 Byte Chunks</p><p>Processing Response in 4096 Byte Chunks</p><p>Processing Response in 4096 Byte Chunks</p><p>Processing Response in 4096 Byte Chunks</p><p>Processing Response in 4096 Byte Chunks</p><p>Processing Response in 4096 Byte Chunks</p><p>Processing Response in 4096 Byte Chunks</p><p>Processing Response in 4096 Byte Chunks</p><p>Processing Response in 4096 Byte Chunks</p><p>Processing Response in 4096 Byte Chunks</p><p>Processing Response in 4096 Byte Chunks</p><p>Processing Response in 4096 Byte Chunks</p><p>Processing Response in 4096 Byte Chunks</p><p>Processing Response in 4096 Byte Chunks</p><p>Processing Response in 4096 Byte Chunks</p><p>Processing Response in 4096 Byte Chunks</p><p>Processing Response in 4096 Byte Chunks</p><p>Processing Response in 4096 Byte Chunks</p><p>Processing Response in 4096 Byte Chunks</p><p>Processing Response in 4096 Byte Chunks</p><p>Processing Response in 4096 Byte Chunks</p><p>Processing Response in 4096 Byte Chunks</p><p>Processing Response in 4096 Byte Chunks</p><p>Processing Response in 4096 Byte Chunks</p><p>Processing Response in 4096 Byte Chunks</p><p>Processing Response in 4096 Byte Chunks</p><p>Processing Response in 4096 Byte Chunks</p><p>Processing Response in 4096 Byte Chunks</p><p>Processing Response in 4096 Byte Chunks</p><p>Processing Response in 4096 Byte Chunks</p><p>Processing Response in 4096 Byte Chunks</p><p>Processing Response in 4096 Byte Chunks</p><p>Processing Response in 4096 Byte Chunks</p><p>Processing Response in 4096 Byte Chunks</p><p>Processing Response in 4096 Byte Chunks</p><p>Processing Response in 4096 Byte Chunks</p><p>Processing Response in 4096 Byte Chunks</p><p>Processing Response in 4096 Byte Chunks</p><p>Processing Response in 4096 Byte Chunks</p><p>Processing Response in 4096 Byte Chunks</p><p>Processing Response in 4096 Byte Chunks</p><p>Processing Response in 4096 Byte Chunks</p><p>Processing Response in 4096 Byte Chunks</p><p>Processing Response in 4096 Byte Chunks</p><p>Processing Response in 4096 Byte Chunks</p><p>Processing Response in 4096 Byte Chunks</p><p>Processing Response in 4096 Byte Chunks</p><p>Processing Response in 4096 Byte Chunks</p><p>Processing Response in 4096 Byte Chunks</p><p>Processing Response in 4096 Byte Chunks</p><p>Processing Response in 4096 Byte Chunks</p><p>Processing Response in 4096 Byte Chunks</p><p>Processing Response in 4096 Byte Chunks</p><p>Processing Response in 4096 Byte Chunks</p><p>Processing Response in 4096 Byte Chunks</p><p>Processing Response in 4096 Byte Chunks</p><p>Processing Response in 4096 Byte Chunks</p><p>Processing Response in 4096 Byte Chunks</p><p>Processing Response in 4096 Byte Chunks</p><p>Processing Response in 4096 Byte Chunks</p><p>Processing Response in 4096 Byte Chunks</p><p>Processing Response in 4096 Byte Chunks</p><p>Processing Response in 4096 Byte Chunks</p><p>Processing Response in 4096 Byte Chunks</p><p>Processing Response in 4096 Byte Chunks</p><p>Processing Response in 4096 Byte Chunks</p><p>Processing Response in 4096 Byte Chunks</p><p>Processing Response in 4096 Byte Chunks</p><p>Processing Response in 4096 Byte Chunks</p><p>Processing Response in 4096 Byte Chunks</p><p>Processing Response in 4096 Byte Chunks</p><p>Processing Response in 4096 Byte Chunks</p><p>Processing Response in 4096 Byte Chunks</p><p>Processing Response in 4096 Byte Chunks</p><p>Processing Response in 4096 Byte Chunks</p><p>Processing Response in 4096 Byte Chunks</p><p>Processing Response in 4096 Byte Chunks</p><p>Processing Response in 4096 Byte Chunks</p><p>Processing Response in 4096 Byte Chunks</p><p>Processing Response in 4096 Byte Chunks</p><p>Processing Response in 4096 Byte Chunks</p><p>Processing Response in 4096 Byte Chunks</p><p>Processing Response in 4096 Byte Chunks</p><p>Processing Response in 4096 Byte Chunks</p><p>Processing Response in 4096 Byte Chunks</p><p>Processing Response in 4096 Byte Chunks</p><p>Processing Response in 4096 Byte Chunks</p><p>Processing Response in 4096 Byte Chunks</p><p>Processing Response in 4096 Byte Chunks</p><p>Processing Response in 4096 Byte Chunks</p><p>Processing Response in 4096 Byte Chunks</p><p>Processing Response in 4096 Byte Chunks</p><p>Processing Response in 4096 Byte Chunks</p><p>Processing Response in 4096 Byte Chunks</p><p>Processing Response in 4096 Byte Chunks</p><p>Processing Response in 4096 Byte Chunks</p><p>Processing Response in 4096 Byte Chunks</p><p>Processing Response in 4096 Byte Chunks</p><p>Processing Response in 4096 Byte Chunks</p><p>Processing Response in 4096 Byte Chunks</p><p>Processing Response in 4096 Byte Chunks</p><p>Processing Response in 4096 Byte Chunks</p><p>Processing Response in 4096 Byte Chunks</p><p>Processing Response in 4096 Byte Chunks</p><p>Processing Response in 4096 Byte Chunks</p><p>Processing Response in 4096 Byte Chunks</p><p>Processing Response in 4096 Byte Chunks</p><p>Processing Response in 4096 Byte Chunks</p><p>Processing Response in 4096 Byte Chunks</p><p>Processing Response in 4096 Byte Chunks</p><p>Processing Response in 4096 Byte Chunks</p><p>Processing Response in 4096 Byte Chunks</p><p>Processing Response in 4096 Byte Chunks</p><p>Processing Response in 4096 Byte Chunks</p><p>Processing Response in 4096 Byte Chunks</p><p>Processing Response in 4096 Byte Chunks</p><p>Processing Response in 4096 Byte Chunks</p><p>Processing Response in 4096 Byte Chunks</p><p>Processing Response in 4096 Byte Chunks</p><p>Processing Response in 4096 Byte Chunks</p><p>Processing Response in 4096 Byte Chunks</p><p>Processing Response in 4096 Byte Chunks</p><p>Processing Response in 4096 Byte Chunks</p><p>Processing Response in 4096 Byte Chunks</p><p>Processing Response in 4096 Byte Chunks</p><p>Processing Response in 4096 Byte Chunks</p><p>Processing Response in 4096 Byte Chunks</p><p>Processing Response in 4096 Byte Chunks</p><p>Processing Response in 4096 Byte Chunks</p><p>Processing Response in 4096 Byte Chunks</p><p>Processing Response in 4096 Byte Chunks</p><p>Processing Response in 4096 Byte Chunks</p><p>Processing Response in 4096 Byte Chunks</p><p>Processing Response in 4096 Byte Chunks</p><p>Processing Response in 4096 Byte Chunks</p><p>Processing Response in 4096 Byte Chunks</p><p>Processing Response in 4096 Byte Chunks</p><p>Processing Response in 4096 Byte Chunks</p><p>Processing Response in 4096 Byte Chunks</p><p>Processing Response in 4096 Byte Chunks</p><p>Processing Response in 4096 Byte Chunks</p><p>Processing Response in 4096 Byte Chunks</p><p>Processing Response in 4096 Byte Chunks</p><p>Processing Response in 4096 Byte Chunks</p><p>Processing Response in 4096 Byte Chunks</p><p>Closed TCP Connection</p><p>Clos100 77885    0 77885    0     0  15865      0 --:--:--  0:00:04 --:--:-- 19909
ed Log File</p><h1>Log Cronjob Finished</h1>

</body>
</html>password expired
\n\n\n
EmailOverdueActions Finished
Wed Jul 19 03:20:05 WST 2017
*******************************************************
